sim_out.vcd
$date
	Tue Jun 06 18:54:53 2023
$end
$version
	Icarus Verilog
$end
$timescale
	1ps
$end
$scope module tb_rvseed $end
$var wire 32 ! a0_x10 [31:0] $end
$var wire 32 " a1_x11 [31:0] $end
$var wire 32 # a2_x12 [31:0] $end
$var wire 32 $ a3_x13 [31:0] $end
$var wire 32 % a4_x14 [31:0] $end
$var wire 32 & a5_x15 [31:0] $end
$var wire 32 ' a6_x16 [31:0] $end
$var wire 32 ( a7_x17 [31:0] $end
$var wire 32 ) gp_x3 [31:0] $end
$var wire 32 * ra_x1 [31:0] $end
$var wire 32 + s0_fp_x8 [31:0] $end
$var wire 32 , s10_x26 [31:0] $end
$var wire 32 - s11_x27 [31:0] $end
$var wire 32 . s1_x9 [31:0] $end
$var wire 32 / s2_x18 [31:0] $end
$var wire 32 0 s3_x19 [31:0] $end
$var wire 32 1 s4_x20 [31:0] $end
$var wire 32 2 s5_x21 [31:0] $end
$var wire 32 3 s6_x22 [31:0] $end
$var wire 32 4 s7_x23 [31:0] $end
$var wire 32 5 s8_x24 [31:0] $end
$var wire 32 6 s9_x25 [31:0] $end
$var wire 32 7 sp_x2 [31:0] $end
$var wire 32 8 t0_x5 [31:0] $end
$var wire 32 9 t1_x6 [31:0] $end
$var wire 32 : t2_x7 [31:0] $end
$var wire 32 ; t3_x28 [31:0] $end
$var wire 32 < t4_x29 [31:0] $end
$var wire 32 = t5_x30 [31:0] $end
$var wire 32 > t6_x31 [31:0] $end
$var wire 32 ? tp_x4 [31:0] $end
$var wire 32 @ zero_x0 [31:0] $end
$var reg 1 A clk $end
$var reg 1 B rst_n $end
$var integer 32 C r [31:0] $end
$scope module u_rvseed_0 $end
$var wire 1 A clk $end
$var wire 32 D reg_wdata [31:0] $end
$var wire 1 B rst_n $end
$var wire 1 E zero $end
$var wire 1 F reg_wen $end
$var wire 5 G reg_waddr [4:0] $end
$var wire 32 H reg2_rdata [31:0] $end
$var wire 5 I reg2_raddr [4:0] $end
$var wire 32 J reg1_rdata [31:0] $end
$var wire 5 K reg1_raddr [4:0] $end
$var wire 32 L next_pc [31:0] $end
$var wire 1 M jump $end
$var wire 32 N inst [31:0] $end
$var wire 3 O imm_gen_op [2:0] $end
$var wire 32 P imm [31:0] $end
$var wire 32 Q curr_pc [31:0] $end
$var wire 3 R branch [2:0] $end
$var wire 2 S alu_src_sel [1:0] $end
$var wire 32 T alu_src2 [31:0] $end
$var wire 32 U alu_src1 [31:0] $end
$var wire 32 V alu_res [31:0] $end
$var wire 4 W alu_op [3:0] $end
$scope module u_alu_0 $end
$var wire 32 X alu_src2 [31:0] $end
$var wire 32 Y alu_src1 [31:0] $end
$var wire 4 Z alu_op [3:0] $end
$var reg 32 [ alu_res [31:0] $end
$var reg 1 E zero $end
$upscope $end
$scope module u_ctrl_0 $end
$var wire 5 \ rs2 [4:0] $end
$var wire 5 ] rs1 [4:0] $end
$var wire 5 ^ rd [4:0] $end
$var wire 7 _ opcode [6:0] $end
$var wire 32 ` ir [31:0] $end
$var wire 7 a funct7 [6:0] $end
$var wire 3 b funct3 [2:0] $end
$var reg 4 c alu_op [3:0] $end
$var reg 2 d alu_src_sel [1:0] $end
$var reg 3 e branch_op [2:0] $end
$var reg 3 f imm_gen_op [2:0] $end
$var reg 1 M jump $end
$var reg 5 g reg_r_addr1 [4:0] $end
$var reg 5 h reg_r_addr2 [4:0] $end
$var reg 5 i reg_w_addr [4:0] $end
$var reg 32 j reg_w_data [31:0] $end
$var reg 1 F reg_wen $end
$upscope $end
$scope module u_imm_gen_0 $end
$var wire 3 k imm_gen_op [2:0] $end
$var wire 32 l ir [31:0] $end
$var reg 32 m imm [31:0] $end
$upscope $end
$scope module u_inst_mem_0 $end
$var wire 32 n pc [31:0] $end
$var reg 32 o ir [31:0] $end
$upscope $end
$scope module u_mux_alu_0 $end
$var wire 2 p alu_src_sel [1:0] $end
$var wire 32 q imm [31:0] $end
$var wire 32 r reg_r_data2 [31:0] $end
$var wire 32 s reg_r_data1 [31:0] $end
$var wire 32 t pc [31:0] $end
$var reg 32 u alu_src1 [31:0] $end
$var reg 32 v alu_src2 [31:0] $end
$upscope $end
$scope module u_mux_pc_0 $end
$var wire 3 w branch_op [2:0] $end
$var wire 32 x imm [31:0] $end
$var wire 1 M jump $end
$var wire 1 E zero $end
$var wire 32 y pc [31:0] $end
$var reg 32 z next_pc [31:0] $end
$upscope $end
$scope module u_pc_reg_0 $end
$var wire 1 A clk $end
$var wire 32 { next_pc [31:0] $end
$var wire 1 B rst_n $end
$var reg 32 | pc [31:0] $end
$upscope $end
$scope module u_reg_file_0 $end
$var wire 1 A clk $end
$var wire 5 } reg_r_addr1 [4:0] $end
$var wire 5 ~ reg_r_addr2 [4:0] $end
$var wire 5 !" reg_w_addr [4:0] $end
$var wire 32 "" reg_w_data [31:0] $end
$var wire 1 F reg_wen $end
$var reg 32 #" reg_r_data1 [31:0] $end
$var reg 32 $" reg_r_data2 [31:0] $end
$var integer 32 %" idx [31:0] $end
$upscope $end
$upscope $end
$scope task inst_load $end
$upscope $end
$scope task reset $end
$upscope $end
$upscope $end
$enddefinitions $end
$comment Show the parameter values. $end
$dumpall
$end
#0
$dumpvars
b100000 %"
bx $"
bx #"
bx ""
bx !"
bx ~
bx }
bx |
bx {
bx z
bx y
bx x
bx w
bx v
bx u
bx t
bx s
bx r
bx q
bx p
bx o
bx n
bx m
bx l
bx k
bx j
bx i
bx h
bx g
bx f
bx e
bx d
bx c
bx b
bx a
bx `
bx _
bx ^
bx ]
bx \
bx [
bx Z
bx Y
bx X
bx W
bx V
bx U
bx T
bx S
bx R
bx Q
bx P
bx O
bx N
xM
bx L
bx K
bx J
bx I
bx H
bx G
xF
xE
bx D
bx C
xB
xA
b0 @
b0 ?
b0 >
b0 =
b0 <
b0 ;
b0 :
b0 9
b0 8
b0 7
b0 6
b0 5
b0 4
b0 3
b0 2
b0 1
b0 0
b0 /
b0 .
b0 -
b0 ,
b0 +
b0 *
b0 )
b0 (
b0 '
b0 &
b0 %
b0 $
b0 #
b0 "
b0 !
$end
#10000
b11 D
b11 ""
b11 V
b11 [
b0 U
b0 Y
b0 u
b0 H
b0 r
b0 $"
b0 J
b0 s
b0 #"
b11 T
b11 X
b11 v
0E
b1 S
b1 d
b1 p
b11 W
b11 Z
b11 c
b0 O
b0 f
b0 k
b1011 G
b1011 i
b1011 !"
b0 I
b0 h
b0 ~
b0 K
b0 g
b0 }
1F
0M
b0 R
b0 e
b0 w
b11 \
b0 ]
b1011 ^
b0 a
b0 b
b10011 _
b11 P
b11 m
b11 q
b11 x
b1100000000010110010011 N
b1100000000010110010011 `
b1100000000010110010011 l
b1100000000010110010011 o
b100 L
b100 z
b100 {
b0 Q
b0 n
b0 t
b0 y
b0 |
0B
1A
#20000
0A
#30000
b1 S
b1 d
b1 p
b11 W
b11 Z
b11 c
b1100 G
b1100 i
b1100 !"
1F
b11 "
b1110 D
b1110 ""
b1110 V
b1110 [
b1110 T
b1110 X
b1110 v
b1110 \
b1100 ^
b1110 P
b1110 m
b1110 q
b1110 x
b111000000000011000010011 N
b111000000000011000010011 `
b111000000000011000010011 l
b111000000000011000010011 o
b1000 L
b1000 z
b1000 {
b100 Q
b100 n
b100 t
b100 y
b100 |
1A
1B
#40000
0A
#50000
b11 U
b11 Y
b11 u
b11 J
b11 s
b11 #"
b1011 K
b1011 g
b1011 }
b1 S
b1 d
b1 p
b11 W
b11 Z
b11 c
b1010 G
b1010 i
b1010 !"
1F
b1110 #
b1100111 D
b1100111 ""
b1100111 V
b1100111 [
b1100100 T
b1100100 X
b1100100 v
b100 \
b1011 ]
b1010 ^
b11 a
b1100100 P
b1100100 m
b1100100 q
b1100100 x
b110010001011000010100010011 N
b110010001011000010100010011 `
b110010001011000010100010011 l
b110010001011000010100010011 o
b1100 L
b1100 z
b1100 {
b1000 Q
b1000 n
b1000 t
b1000 y
b1000 |
1A
#60000
0A
#70000
b1 S
b1 d
b1 p
b10 W
b10 Z
b10 c
b1010 G
b1010 i
b1010 !"
b1011 K
b1011 g
b1011 }
1F
b1100111 !
b1 D
b1 ""
b1 V
b1 [
b10 T
b10 X
b10 v
b10 \
b0 a
b100 b
b10 P
b10 m
b10 q
b10 x
b1001011100010100010011 N
b1001011100010100010011 `
b1001011100010100010011 l
b1001011100010100010011 o
b10000 L
b10000 z
b10000 {
b1100 Q
b1100 n
b1100 t
b1100 y
b1100 |
1A
#80000
0A
#90000
b11 D
b11 ""
b11 V
b11 [
b1 S
b1 d
b1 p
b1 W
b1 Z
b1 c
b1010 G
b1010 i
b1010 !"
b1011 K
b1011 g
b1011 }
1F
b1 !
b110 b
b10 P
b10 m
b10 q
b10 x
b1001011110010100010011 N
b1001011110010100010011 `
b1001011110010100010011 l
b1001011110010100010011 o
b10100 L
b10100 z
b10100 {
b10000 Q
b10000 n
b10000 t
b10000 y
b10000 |
1A
#100000
0A
#110000
b10 D
b10 ""
b10 V
b10 [
b1 S
b1 d
b1 p
b0 W
b0 Z
b0 c
b1010 G
b1010 i
b1010 !"
b1011 K
b1011 g
b1011 }
1F
b11 !
b111 b
b10 P
b10 m
b10 q
b10 x
b1001011111010100010011 N
b1001011111010100010011 `
b1001011111010100010011 l
b1001011111010100010011 o
b11000 L
b11000 z
b11000 {
b10100 Q
b10100 n
b10100 t
b10100 y
b10100 |
1A
#120000
0A
#130000
b11 D
b11 ""
b11 V
b11 [
b1 W
b1 Z
b1 c
b1 S
b1 d
b1 p
b1010 G
b1010 i
b1010 !"
b1011 K
b1011 g
b1011 }
1F
b10 !
b1 b
b10 P
b10 m
b10 q
b10 x
b1001011001010100010011 N
b1001011001010100010011 `
b1001011001010100010011 l
b1001011001010100010011 o
b11100 L
b11100 z
b11100 {
b11000 Q
b11000 n
b11000 t
b11000 y
b11000 |
1A
#140000
0A
#150000
b0 D
b0 ""
b0 V
b0 [
b1 S
b1 d
b1 p
b110 W
b110 Z
b110 c
b1010 G
b1010 i
b1010 !"
b1011 K
b1011 g
b1011 }
1F
b11 !
b101 b
b10 P
b10 m
b10 q
b10 x
b1001011101010100010011 N
b1001011101010100010011 `
b1001011101010100010011 l
b1001011101010100010011 o
b100000 L
b100000 z
b100000 {
b11100 Q
b11100 n
b11100 t
b11100 y
b11100 |
1A
#160000
0A
#170000
b0 U
b0 Y
b0 u
b0 J
b0 s
b0 #"
b11111111111111111111111111111111 D
b11111111111111111111111111111111 ""
b11111111111111111111111111111111 V
b11111111111111111111111111111111 [
b1 S
b1 d
b1 p
b11 W
b11 Z
b11 c
b1011 G
b1011 i
b1011 !"
b0 K
b0 g
b0 }
1F
b0 !
b11111111111111111111111111111111 T
b11111111111111111111111111111111 X
b11111111111111111111111111111111 v
b11111 \
b0 ]
b1011 ^
b1111111 a
b0 b
b11111111111111111111111111111111 P
b11111111111111111111111111111111 m
b11111111111111111111111111111111 q
b11111111111111111111111111111111 x
b11111111111100000000010110010011 N
b11111111111100000000010110010011 `
b11111111111100000000010110010011 l
b11111111111100000000010110010011 o
b100100 L
b100100 z
b100100 {
b100000 Q
b100000 n
b100000 t
b100000 y
b100000 |
1A
#180000
0A
#190000
b11111111111111111111111111111111 U
b11111111111111111111111111111111 Y
b11111111111111111111111111111111 u
b11111111111111111111111111111111 J
b11111111111111111111111111111111 s
b11111111111111111111111111111111 #"
b1011 K
b1011 g
b1011 }
b1 S
b1 d
b1 p
b110 W
b110 Z
b110 c
b1010 G
b1010 i
b1010 !"
1F
b11111111111111111111111111111111 "
b0 D
b0 ""
b0 V
b0 [
b10000000010 T
b10000000010 X
b10000000010 v
b10 \
b1011 ]
b1010 ^
b100000 a
b101 b
b10000000010 P
b10000000010 m
b10000000010 q
b10000000010 x
b1000000001001011101010100010011 N
b1000000001001011101010100010011 `
b1000000001001011101010100010011 l
b1000000001001011101010100010011 o
b101000 L
b101000 z
b101000 {
b100100 Q
b100100 n
b100100 t
b100100 y
b100100 |
1A
#200000
0A
#210000
b1 S
b1 d
b1 p
b110 W
b110 Z
b110 c
b1010 G
b1010 i
b1010 !"
b1011 K
b1011 g
b1011 }
1F
b111111111111111111111111111111 D
b111111111111111111111111111111 ""
b111111111111111111111111111111 V
b111111111111111111111111111111 [
b10 T
b10 X
b10 v
b0 a
b10 P
b10 m
b10 q
b10 x
b1001011101010100010011 N
b1001011101010100010011 `
b1001011101010100010011 l
b1001011101010100010011 o
b101100 L
b101100 z
b101100 {
b101000 Q
b101000 n
b101000 t
b101000 y
b101000 |
1A
#220000
0A
#230000
b1 S
b1 d
b1 p
b1000 W
b1000 Z
b1000 c
b1010 G
b1010 i
b1010 !"
b1011 K
b1011 g
b1011 }
1F
b111111111111111111111111111111 !
b0 D
b0 ""
b0 V
b0 [
b100 T
b100 X
b100 v
b100 \
b10 b
b100 P
b100 m
b100 q
b100 x
b10001011010010100010011 N
b10001011010010100010011 `
b10001011010010100010011 l
b10001011010010100010011 o
b110000 L
b110000 z
b110000 {
b101100 Q
b101100 n
b101100 t
b101100 y
b101100 |
1A
#240000
0A
#250000
b0 U
b0 Y
b0 u
b0 J
b0 s
b0 #"
b11 D
b11 ""
b11 V
b11 [
b1 S
b1 d
b1 p
b11 W
b11 Z
b11 c
b1011 G
b1011 i
b1011 !"
b0 K
b0 g
b0 }
1F
b0 !
b11 T
b11 X
b11 v
b11 \
b0 ]
b1011 ^
b0 b
b11 P
b11 m
b11 q
b11 x
b1100000000010110010011 N
b1100000000010110010011 `
b1100000000010110010011 l
b1100000000010110010011 o
b110100 L
b110100 z
b110100 {
b110000 Q
b110000 n
b110000 t
b110000 y
b110000 |
1A
#260000
0A
#270000
b11 U
b11 Y
b11 u
b11 J
b11 s
b11 #"
b1011 K
b1011 g
b1011 }
b1 S
b1 d
b1 p
b1000 W
b1000 Z
b1000 c
b1010 G
b1010 i
b1010 !"
1F
b11 "
b1 D
b1 ""
b1 V
b1 [
b100 T
b100 X
b100 v
b100 \
b1011 ]
b1010 ^
b10 b
b100 P
b100 m
b100 q
b100 x
b10001011010010100010011 N
b10001011010010100010011 `
b10001011010010100010011 l
b10001011010010100010011 o
b111000 L
b111000 z
b111000 {
b110100 Q
b110100 n
b110100 t
b110100 y
b110100 |
1A
#280000
0A
#290000
b0 U
b0 Y
b0 u
b0 J
b0 s
b0 #"
b0 S
b0 d
b0 p
b0 W
b0 Z
b0 c
b0 G
b0 i
b0 !"
b0 K
b0 g
b0 }
0F
b1 !
b0 D
b0 ""
b0 V
b0 [
b0 T
b0 X
b0 v
bx \
bx ]
bx ^
bx a
bx b
bx _
bx P
bx m
bx q
bx x
bx N
bx `
bx l
bx o
b111100 L
b111100 z
b111100 {
b111000 Q
b111000 n
b111000 t
b111000 y
b111000 |
1A
#300000
0A
#310000
b1000000 L
b1000000 z
b1000000 {
b111100 Q
b111100 n
b111100 t
b111100 y
b111100 |
1A
#320000
0A
#330000
b1000100 L
b1000100 z
b1000100 {
b1000000 Q
b1000000 n
b1000000 t
b1000000 y
b1000000 |
1A
#340000
0A
#350000
b1001000 L
b1001000 z
b1001000 {
b1000100 Q
b1000100 n
b1000100 t
b1000100 y
b1000100 |
1A
#360000
0A
#370000
b1001100 L
b1001100 z
b1001100 {
b1001000 Q
b1001000 n
b1001000 t
b1001000 y
b1001000 |
1A
#380000
0A
#390000
b1010000 L
b1010000 z
b1010000 {
b1001100 Q
b1001100 n
b1001100 t
b1001100 y
b1001100 |
1A
#400000
0A
#410000
b1010100 L
b1010100 z
b1010100 {
b1010000 Q
b1010000 n
b1010000 t
b1010000 y
b1010000 |
1A
#420000
0A
#430000
b1011000 L
b1011000 z
b1011000 {
b1010100 Q
b1010100 n
b1010100 t
b1010100 y
b1010100 |
1A
#440000
0A
#450000
b1011100 L
b1011100 z
b1011100 {
b1011000 Q
b1011000 n
b1011000 t
b1011000 y
b1011000 |
1A
#460000
0A
#470000
b1100000 L
b1100000 z
b1100000 {
b1011100 Q
b1011100 n
b1011100 t
b1011100 y
b1011100 |
1A
#480000
0A
#490000
b1100100 L
b1100100 z
b1100100 {
b1100000 Q
b1100000 n
b1100000 t
b1100000 y
b1100000 |
1A
#500000
0A
#510000
b1101000 L
b1101000 z
b1101000 {
b1100100 Q
b1100100 n
b1100100 t
b1100100 y
b1100100 |
1A
#520000
0A
#530000
b1101100 L
b1101100 z
b1101100 {
b1101000 Q
b1101000 n
b1101000 t
b1101000 y
b1101000 |
1A
#540000
0A
#550000
b1110000 L
b1110000 z
b1110000 {
b1101100 Q
b1101100 n
b1101100 t
b1101100 y
b1101100 |
1A
#560000
0A
#570000
b1110100 L
b1110100 z
b1110100 {
b1110000 Q
b1110000 n
b1110000 t
b1110000 y
b1110000 |
1A
#580000
0A
#590000
b1111000 L
b1111000 z
b1111000 {
b1110100 Q
b1110100 n
b1110100 t
b1110100 y
b1110100 |
1A
#600000
0A
#610000
b1111100 L
b1111100 z
b1111100 {
b1111000 Q
b1111000 n
b1111000 t
b1111000 y
b1111000 |
1A
#620000
0A
#630000
b10000000 L
b10000000 z
b10000000 {
b1111100 Q
b1111100 n
b1111100 t
b1111100 y
b1111100 |
1A
#640000
0A
#650000
b10000100 L
b10000100 z
b10000100 {
b10000000 Q
b10000000 n
b10000000 t
b10000000 y
b10000000 |
1A
#660000
0A
#670000
b10001000 L
b10001000 z
b10001000 {
b10000100 Q
b10000100 n
b10000100 t
b10000100 y
b10000100 |
1A
#680000
0A
#690000
b10001100 L
b10001100 z
b10001100 {
b10001000 Q
b10001000 n
b10001000 t
b10001000 y
b10001000 |
1A
#700000
0A
#710000
b10010000 L
b10010000 z
b10010000 {
b10001100 Q
b10001100 n
b10001100 t
b10001100 y
b10001100 |
1A
#720000
0A
#730000
b10010100 L
b10010100 z
b10010100 {
b10010000 Q
b10010000 n
b10010000 t
b10010000 y
b10010000 |
1A
#740000
0A
#750000
b10011000 L
b10011000 z
b10011000 {
b10010100 Q
b10010100 n
b10010100 t
b10010100 y
b10010100 |
1A
#760000
0A
#770000
b10011100 L
b10011100 z
b10011100 {
b10011000 Q
b10011000 n
b10011000 t
b10011000 y
b10011000 |
1A
#780000
0A
#790000
b10100000 L
b10100000 z
b10100000 {
b10011100 Q
b10011100 n
b10011100 t
b10011100 y
b10011100 |
1A
#800000
0A
#810000
b10100100 L
b10100100 z
b10100100 {
b10100000 Q
b10100000 n
b10100000 t
b10100000 y
b10100000 |
1A
#820000
0A
#830000
b10101000 L
b10101000 z
b10101000 {
b10100100 Q
b10100100 n
b10100100 t
b10100100 y
b10100100 |
1A
#840000
0A
#850000
b10101100 L
b10101100 z
b10101100 {
b10101000 Q
b10101000 n
b10101000 t
b10101000 y
b10101000 |
1A
#860000
0A
#870000
b10110000 L
b10110000 z
b10110000 {
b10101100 Q
b10101100 n
b10101100 t
b10101100 y
b10101100 |
1A
#880000
0A
#890000
b10110100 L
b10110100 z
b10110100 {
b10110000 Q
b10110000 n
b10110000 t
b10110000 y
b10110000 |
1A
#900000
0A
#910000
b10111000 L
b10111000 z
b10111000 {
b10110100 Q
b10110100 n
b10110100 t
b10110100 y
b10110100 |
1A
#920000
0A
#930000
b10111100 L
b10111100 z
b10111100 {
b10111000 Q
b10111000 n
b10111000 t
b10111000 y
b10111000 |
1A
#940000
0A
#950000
b11000000 L
b11000000 z
b11000000 {
b10111100 Q
b10111100 n
b10111100 t
b10111100 y
b10111100 |
1A
#960000
0A
#970000
b11000100 L
b11000100 z
b11000100 {
b11000000 Q
b11000000 n
b11000000 t
b11000000 y
b11000000 |
1A
#980000
0A
#990000
b11001000 L
b11001000 z
b11001000 {
b11000100 Q
b11000100 n
b11000100 t
b11000100 y
b11000100 |
1A
#1000000
0A
#1010000
b11001100 L
b11001100 z
b11001100 {
b11001000 Q
b11001000 n
b11001000 t
b11001000 y
b11001000 |
1A
#1020000
0A
#1030000
b11010000 L
b11010000 z
b11010000 {
b11001100 Q
b11001100 n
b11001100 t
b11001100 y
b11001100 |
1A
#1040000
0A
#1050000
b11010100 L
b11010100 z
b11010100 {
b11010000 Q
b11010000 n
b11010000 t
b11010000 y
b11010000 |
1A
#1060000
0A
#1070000
b11011000 L
b11011000 z
b11011000 {
b11010100 Q
b11010100 n
b11010100 t
b11010100 y
b11010100 |
1A
#1080000
0A
#1090000
b11011100 L
b11011100 z
b11011100 {
b11011000 Q
b11011000 n
b11011000 t
b11011000 y
b11011000 |
1A
#1100000
0A
#1110000
b11100000 L
b11100000 z
b11100000 {
b11011100 Q
b11011100 n
b11011100 t
b11011100 y
b11011100 |
1A
#1120000
0A
#1130000
b11100100 L
b11100100 z
b11100100 {
b11100000 Q
b11100000 n
b11100000 t
b11100000 y
b11100000 |
1A
#1140000
0A
#1150000
b11101000 L
b11101000 z
b11101000 {
b11100100 Q
b11100100 n
b11100100 t
b11100100 y
b11100100 |
1A
#1160000
0A
#1170000
b11101100 L
b11101100 z
b11101100 {
b11101000 Q
b11101000 n
b11101000 t
b11101000 y
b11101000 |
1A
#1180000
0A
#1190000
b11110000 L
b11110000 z
b11110000 {
b11101100 Q
b11101100 n
b11101100 t
b11101100 y
b11101100 |
1A
#1200000
0A
#1210000
b11110100 L
b11110100 z
b11110100 {
b11110000 Q
b11110000 n
b11110000 t
b11110000 y
b11110000 |
1A
#1220000
0A
#1230000
b11111000 L
b11111000 z
b11111000 {
b11110100 Q
b11110100 n
b11110100 t
b11110100 y
b11110100 |
1A
#1240000
0A
#1250000
b11111100 L
b11111100 z
b11111100 {
b11111000 Q
b11111000 n
b11111000 t
b11111000 y
b11111000 |
1A
#1260000
0A
#1270000
b100000000 L
b100000000 z
b100000000 {
b11111100 Q
b11111100 n
b11111100 t
b11111100 y
b11111100 |
1A
#1280000
0A
#1290000
b100000100 L
b100000100 z
b100000100 {
b100000000 Q
b100000000 n
b100000000 t
b100000000 y
b100000000 |
1A
#1300000
0A
#1310000
b100001000 L
b100001000 z
b100001000 {
b100000100 Q
b100000100 n
b100000100 t
b100000100 y
b100000100 |
1A
#1320000
0A
#1330000
b100001100 L
b100001100 z
b100001100 {
b100001000 Q
b100001000 n
b100001000 t
b100001000 y
b100001000 |
1A
#1340000
0A
#1350000
b100010000 L
b100010000 z
b100010000 {
b100001100 Q
b100001100 n
b100001100 t
b100001100 y
b100001100 |
1A
#1360000
0A
#1370000
b100010100 L
b100010100 z
b100010100 {
b100010000 Q
b100010000 n
b100010000 t
b100010000 y
b100010000 |
1A
#1380000
0A
#1390000
b100011000 L
b100011000 z
b100011000 {
b100010100 Q
b100010100 n
b100010100 t
b100010100 y
b100010100 |
1A
#1400000
0A
#1410000
b100011100 L
b100011100 z
b100011100 {
b100011000 Q
b100011000 n
b100011000 t
b100011000 y
b100011000 |
1A
#1420000
0A
#1430000
b100100000 L
b100100000 z
b100100000 {
b100011100 Q
b100011100 n
b100011100 t
b100011100 y
b100011100 |
1A
#1440000
0A
#1450000
b100100100 L
b100100100 z
b100100100 {
b100100000 Q
b100100000 n
b100100000 t
b100100000 y
b100100000 |
1A
#1460000
0A
#1470000
b100101000 L
b100101000 z
b100101000 {
b100100100 Q
b100100100 n
b100100100 t
b100100100 y
b100100100 |
1A
#1480000
0A
#1490000
b100101100 L
b100101100 z
b100101100 {
b100101000 Q
b100101000 n
b100101000 t
b100101000 y
b100101000 |
1A
#1500000
0A
#1510000
b100110000 L
b100110000 z
b100110000 {
b100101100 Q
b100101100 n
b100101100 t
b100101100 y
b100101100 |
1A
#1520000
0A
#1530000
b100110100 L
b100110100 z
b100110100 {
b100110000 Q
b100110000 n
b100110000 t
b100110000 y
b100110000 |
1A
#1540000
0A
#1550000
b100111000 L
b100111000 z
b100111000 {
b100110100 Q
b100110100 n
b100110100 t
b100110100 y
b100110100 |
1A
#1560000
0A
#1570000
b100111100 L
b100111100 z
b100111100 {
b100111000 Q
b100111000 n
b100111000 t
b100111000 y
b100111000 |
1A
#1580000
0A
#1590000
b101000000 L
b101000000 z
b101000000 {
b100111100 Q
b100111100 n
b100111100 t
b100111100 y
b100111100 |
1A
#1600000
0A
#1610000
b101000100 L
b101000100 z
b101000100 {
b101000000 Q
b101000000 n
b101000000 t
b101000000 y
b101000000 |
1A
#1620000
0A
#1630000
b101001000 L
b101001000 z
b101001000 {
b101000100 Q
b101000100 n
b101000100 t
b101000100 y
b101000100 |
1A
#1640000
0A
#1650000
b101001100 L
b101001100 z
b101001100 {
b101001000 Q
b101001000 n
b101001000 t
b101001000 y
b101001000 |
1A
#1660000
0A
#1670000
b101010000 L
b101010000 z
b101010000 {
b101001100 Q
b101001100 n
b101001100 t
b101001100 y
b101001100 |
1A
#1680000
0A
#1690000
b101010100 L
b101010100 z
b101010100 {
b101010000 Q
b101010000 n
b101010000 t
b101010000 y
b101010000 |
1A
#1700000
0A
#1710000
b101011000 L
b101011000 z
b101011000 {
b101010100 Q
b101010100 n
b101010100 t
b101010100 y
b101010100 |
1A
#1720000
0A
#1730000
b101011100 L
b101011100 z
b101011100 {
b101011000 Q
b101011000 n
b101011000 t
b101011000 y
b101011000 |
1A
#1740000
0A
#1750000
b101100000 L
b101100000 z
b101100000 {
b101011100 Q
b101011100 n
b101011100 t
b101011100 y
b101011100 |
1A
#1760000
0A
#1770000
b101100100 L
b101100100 z
b101100100 {
b101100000 Q
b101100000 n
b101100000 t
b101100000 y
b101100000 |
1A
#1780000
0A
#1790000
b101101000 L
b101101000 z
b101101000 {
b101100100 Q
b101100100 n
b101100100 t
b101100100 y
b101100100 |
1A
#1800000
0A
#1810000
b101101100 L
b101101100 z
b101101100 {
b101101000 Q
b101101000 n
b101101000 t
b101101000 y
b101101000 |
1A
#1820000
0A
#1830000
b101110000 L
b101110000 z
b101110000 {
b101101100 Q
b101101100 n
b101101100 t
b101101100 y
b101101100 |
1A
#1840000
0A
#1850000
b101110100 L
b101110100 z
b101110100 {
b101110000 Q
b101110000 n
b101110000 t
b101110000 y
b101110000 |
1A
#1860000
0A
#1870000
b101111000 L
b101111000 z
b101111000 {
b101110100 Q
b101110100 n
b101110100 t
b101110100 y
b101110100 |
1A
#1880000
0A
#1890000
b101111100 L
b101111100 z
b101111100 {
b101111000 Q
b101111000 n
b101111000 t
b101111000 y
b101111000 |
1A
#1900000
0A
#1910000
b110000000 L
b110000000 z
b110000000 {
b101111100 Q
b101111100 n
b101111100 t
b101111100 y
b101111100 |
1A
#1920000
0A
#1930000
b110000100 L
b110000100 z
b110000100 {
b110000000 Q
b110000000 n
b110000000 t
b110000000 y
b110000000 |
1A
#1940000
0A
#1950000
b110001000 L
b110001000 z
b110001000 {
b110000100 Q
b110000100 n
b110000100 t
b110000100 y
b110000100 |
1A
#1960000
0A
#1970000
b110001100 L
b110001100 z
b110001100 {
b110001000 Q
b110001000 n
b110001000 t
b110001000 y
b110001000 |
1A
#1980000
0A
#1990000
b110010000 L
b110010000 z
b110010000 {
b110001100 Q
b110001100 n
b110001100 t
b110001100 y
b110001100 |
1A
#2000000
0A
#2010000
b110010100 L
b110010100 z
b110010100 {
b110010000 Q
b110010000 n
b110010000 t
b110010000 y
b110010000 |
1A
